<?xml version="1.0" encoding="ASCII"?>
<ApplicationModel:ApplicationData xmi:version="2.0" xmlns:xmi="http://www.omg.org/XMI" xmlns:xsi="http://www.w3.org/2001/XMLSchema-instance" xmlns:ApplicationModel="www.infineon.com/dave/applicationmodel" xmlns:ResourceModel="http://www.infineon.com/Davex/Resource.ecore">
  <nodes xsi:type="ApplicationModel:AppNode">
    <resource xsi:type="ResourceModel:App" href="APPS/CPU_CTRL_XMC4/v4_0_12/CPU_CTRL_XMC4_0.app#/"/>
  </nodes>
  <nodes xsi:type="ApplicationModel:AppNode">
    <resource xsi:type="ResourceModel:App" href="APPS/E_EEPROM_XMC4/v4_0_6/E_EEPROM_XMC4_0.app#/"/>
  </nodes>
  <nodes xsi:type="ApplicationModel:AppNode">
    <resource xsi:type="ResourceModel:App" href="APPS/TIMER/v4_1_8/TIMER_0.app#/"/>
  </nodes>
  <nodes xsi:type="ApplicationModel:AppNode">
    <resource xsi:type="ResourceModel:App" href="APPS/CLOCK_XMC4/v4_0_18/CLOCK_XMC4_0.app#/"/>
  </nodes>
  <nodes xsi:type="ApplicationModel:AppNode">
    <resource xsi:type="ResourceModel:App" href="APPS/INTERRUPT/v4_0_8/INTERRUPT_0.app#/"/>
  </nodes>
  <nodes xsi:type="ApplicationModel:AppNode">
    <resource xsi:type="ResourceModel:App" href="APPS/ECAT_SSC/v4_0_6/ECAT_SSC_0.app#/"/>
  </nodes>
  <nodes xsi:type="ApplicationModel:PeripheralNode">
    <resource xsi:type="ResourceModel:Peripheral" href="HW_RESOURCES/SCU/SCU_0.dd#/"/>
  </nodes>
  <nodes xsi:type="ApplicationModel:PeripheralNode">
    <resource xsi:type="ResourceModel:Peripheral" href="HW_RESOURCES/port1/port1_1.dd#/"/>
  </nodes>
  <nodes xsi:type="ApplicationModel:DevicePackageNode">
    <resource xsi:type="ResourceModel:DevicePackage" href="HW_RESOURCES/DEVICEPACKAGE/DEVICEPACKAGE_0.dd#/"/>
  </nodes>
  <nodes xsi:type="ApplicationModel:PeripheralNode">
    <resource xsi:type="ResourceModel:Peripheral" href="HW_RESOURCES/port4/port4_4.dd#/"/>
  </nodes>
  <nodes xsi:type="ApplicationModel:PeripheralNode">
    <resource xsi:type="ResourceModel:Peripheral" href="HW_RESOURCES/cpu/cpu_0.dd#/"/>
  </nodes>
  <nodes xsi:type="ApplicationModel:PeripheralNode">
    <resource xsi:type="ResourceModel:Peripheral" href="HW_RESOURCES/port2/port2_2.dd#/"/>
  </nodes>
  <nodes xsi:type="ApplicationModel:PeripheralNode">
    <resource xsi:type="ResourceModel:Peripheral" href="HW_RESOURCES/fce/fce_0.dd#/"/>
  </nodes>
  <nodes xsi:type="ApplicationModel:PeripheralNode">
    <resource xsi:type="ResourceModel:Peripheral" href="HW_RESOURCES/port5/port5_5.dd#/"/>
  </nodes>
  <nodes xsi:type="ApplicationModel:PeripheralNode">
    <resource xsi:type="ResourceModel:Peripheral" href="HW_RESOURCES/ccu43/ccu43_3.dd#/"/>
  </nodes>
  <nodes xsi:type="ApplicationModel:PortNode">
    <resource xsi:type="ResourceModel:Port" href="HW_RESOURCES/DEBUG/DEBUG_0.dd#/"/>
  </nodes>
  <nodes xsi:type="ApplicationModel:PeripheralNode">
    <resource xsi:type="ResourceModel:Peripheral" href="HW_RESOURCES/ecat0/ecat0_0.dd#/"/>
  </nodes>
  <nodes xsi:type="ApplicationModel:PeripheralNode">
    <resource xsi:type="ResourceModel:Peripheral" href="HW_RESOURCES/port3/port3_3.dd#/"/>
  </nodes>
  <nodes xsi:type="ApplicationModel:PeripheralNode">
    <resource xsi:type="ResourceModel:Peripheral" href="HW_RESOURCES/port15/port15_15.dd#/"/>
  </nodes>
  <nodes xsi:type="ApplicationModel:PeripheralNode">
    <resource xsi:type="ResourceModel:Peripheral" href="HW_RESOURCES/port14/port14_14.dd#/"/>
  </nodes>
  <nodes xsi:type="ApplicationModel:PeripheralNode">
    <resource xsi:type="ResourceModel:Peripheral" href="HW_RESOURCES/port0/port0_0.dd#/"/>
  </nodes>
  <nodes xsi:type="ApplicationModel:PeripheralNode">
    <resource xsi:type="ResourceModel:Peripheral" href="HW_RESOURCES/port6/port6_6.dd#/"/>
  </nodes>
  <nodes xsi:type="ApplicationModel:AppNode">
    <resource xsi:type="ResourceModel:App" href="APPS/GLOBAL_CCU8/v4_1_12/GLOBAL_CCU8_0.app#/"/>
  </nodes>
  <nodes xsi:type="ApplicationModel:AppNode">
    <resource xsi:type="ResourceModel:App" href="APPS/PWM_CCU8/v4_1_20/PWM_CCU8_0.app#/"/>
  </nodes>
  <nodes xsi:type="ApplicationModel:PeripheralNode">
    <resource xsi:type="ResourceModel:Peripheral" href="HW_RESOURCES/ccu80/ccu80_0.dd#/"/>
  </nodes>
  <nodes xsi:type="ApplicationModel:PeripheralNode">
    <resource xsi:type="ResourceModel:Peripheral" href="HW_RESOURCES/ccu81/ccu81_1.dd#/"/>
  </nodes>
  <nodes xsi:type="ApplicationModel:AppNode">
    <resource xsi:type="ResourceModel:App" href="APPS/DIGITAL_IO/v4_0_14/DIGITAL_IO_0.app#/"/>
  </nodes>
  <nodes xsi:type="ApplicationModel:AppNode">
    <resource xsi:type="ResourceModel:App" href="APPS/DIGITAL_IO/v4_0_14/DIGITAL_IO_1.app#/"/>
  </nodes>
  <nodes xsi:type="ApplicationModel:AppNode">
    <resource xsi:type="ResourceModel:App" href="APPS/DIGITAL_IO/v4_0_14/DIGITAL_IO_2.app#/"/>
  </nodes>
  <nodes xsi:type="ApplicationModel:AppNode">
    <resource xsi:type="ResourceModel:App" href="APPS/SYSTIMER/v4_1_12/SYSTIMER_0.app#/"/>
  </nodes>
  <nodes xsi:type="ApplicationModel:AppNode">
    <resource xsi:type="ResourceModel:App" href="APPS/UART/v4_1_6/UART_0.app#/"/>
  </nodes>
  <nodes xsi:type="ApplicationModel:PeripheralNode">
    <resource xsi:type="ResourceModel:Peripheral" href="HW_RESOURCES/usic1/usic1_1.dd#/"/>
  </nodes>
  <nodes xsi:type="ApplicationModel:PeripheralNode">
    <resource xsi:type="ResourceModel:Peripheral" href="HW_RESOURCES/usic0/usic0_0.dd#/"/>
  </nodes>
  <connections xsi:type="ApplicationModel:NodeConnection" source="//@nodes.4" target="//@nodes.0"/>
  <connections xsi:type="ApplicationModel:NodeConnection" source="//@nodes.5" target="//@nodes.2"/>
  <connections xsi:type="ApplicationModel:NodeConnection" source="//@nodes.5" target="//@nodes.4"/>
  <connections xsi:type="ApplicationModel:NodeConnection" source="//@nodes.5" target="//@nodes.1"/>
  <connections xsi:type="ApplicationModel:NodeConnection" source="//@nodes.5" target="//@nodes.3"/>
  <connections xsi:type="ApplicationModel:NodeConnection" source="//@nodes.5" target="//@nodes.0"/>
  <connections xsi:type="ApplicationModel:NodeConnection" source="//@nodes.22" target="//@nodes.3"/>
  <connections xsi:type="ApplicationModel:NodeConnection" source="//@nodes.23" target="//@nodes.22"/>
  <connections xsi:type="ApplicationModel:NodeConnection" source="//@nodes.29" target="//@nodes.3"/>
  <connections xsi:type="ApplicationModel:NodeConnection" source="//@nodes.29" target="//@nodes.0"/>
  <connections xsi:type="ApplicationModel:NodeConnection" source="//@nodes.30" target="//@nodes.3"/>
  <connections xsi:type="ApplicationModel:NodeConnection" source="//@nodes.30" target="//@nodes.0"/>
  <connections xsi:type="ApplicationModel:NodeConnection" source="//@nodes.2" target="//@nodes.22"/>
  <hwConnections href="APPS/CPU_CTRL_XMC4/v4_0_12/CPU_CTRL_XMC4_0.app#//@connections.7"/>
  <hwConnections href="APPS/CPU_CTRL_XMC4/v4_0_12/CPU_CTRL_XMC4_0.app#//@connections.8"/>
  <hwConnections href="APPS/CPU_CTRL_XMC4/v4_0_12/CPU_CTRL_XMC4_0.app#//@connections.9"/>
  <hwConnections href="APPS/CPU_CTRL_XMC4/v4_0_12/CPU_CTRL_XMC4_0.app#//@connections.10"/>
  <hwConnections href="APPS/CPU_CTRL_XMC4/v4_0_12/CPU_CTRL_XMC4_0.app#//@connections.11"/>
  <hwConnections href="APPS/CPU_CTRL_XMC4/v4_0_12/CPU_CTRL_XMC4_0.app#//@connections.12"/>
  <hwConnections href="APPS/CPU_CTRL_XMC4/v4_0_12/CPU_CTRL_XMC4_0.app#//@connections.13"/>
  <hwConnections href="APPS/CPU_CTRL_XMC4/v4_0_12/CPU_CTRL_XMC4_0.app#//@connections.14"/>
  <hwConnections href="APPS/CPU_CTRL_XMC4/v4_0_12/CPU_CTRL_XMC4_0.app#//@connections.15"/>
  <hwConnections href="APPS/CPU_CTRL_XMC4/v4_0_12/CPU_CTRL_XMC4_0.app#//@connections.16"/>
  <hwConnections href="APPS/CPU_CTRL_XMC4/v4_0_12/CPU_CTRL_XMC4_0.app#//@connections.17"/>
  <hwConnections href="APPS/CPU_CTRL_XMC4/v4_0_12/CPU_CTRL_XMC4_0.app#//@connections.18"/>
  <hwConnections href="APPS/CPU_CTRL_XMC4/v4_0_12/CPU_CTRL_XMC4_0.app#//@connections.19"/>
  <hwConnections href="APPS/CPU_CTRL_XMC4/v4_0_12/CPU_CTRL_XMC4_0.app#//@connections.20"/>
  <hwConnections href="APPS/CLOCK_XMC4/v4_0_18/CLOCK_XMC4_0.app#//@connections.0"/>
  <hwConnections href="APPS/CLOCK_XMC4/v4_0_18/CLOCK_XMC4_0.app#//@connections.5"/>
  <hwConnections href="APPS/CLOCK_XMC4/v4_0_18/CLOCK_XMC4_0.app#//@connections.6"/>
  <hwConnections href="APPS/ECAT_SSC/v4_0_6/ECAT_SSC_0.app#//@connections.0"/>
  <hwConnections href="APPS/ECAT_SSC/v4_0_6/ECAT_SSC_0.app#//@connections.1"/>
  <hwConnections href="APPS/ECAT_SSC/v4_0_6/ECAT_SSC_0.app#//@connections.2"/>
  <hwConnections href="APPS/ECAT_SSC/v4_0_6/ECAT_SSC_0.app#//@connections.3"/>
  <hwConnections href="APPS/ECAT_SSC/v4_0_6/ECAT_SSC_0.app#//@connections.4"/>
  <hwConnections href="APPS/ECAT_SSC/v4_0_6/ECAT_SSC_0.app#//@connections.5"/>
  <hwConnections href="APPS/ECAT_SSC/v4_0_6/ECAT_SSC_0.app#//@connections.6"/>
  <hwConnections href="APPS/ECAT_SSC/v4_0_6/ECAT_SSC_0.app#//@connections.7"/>
  <hwConnections href="APPS/ECAT_SSC/v4_0_6/ECAT_SSC_0.app#//@connections.8"/>
  <hwConnections href="APPS/ECAT_SSC/v4_0_6/ECAT_SSC_0.app#//@connections.9"/>
  <hwConnections href="APPS/ECAT_SSC/v4_0_6/ECAT_SSC_0.app#//@connections.10"/>
  <hwConnections href="APPS/ECAT_SSC/v4_0_6/ECAT_SSC_0.app#//@connections.11"/>
  <hwConnections href="APPS/ECAT_SSC/v4_0_6/ECAT_SSC_0.app#//@connections.12"/>
  <hwConnections href="APPS/ECAT_SSC/v4_0_6/ECAT_SSC_0.app#//@connections.13"/>
  <hwConnections href="APPS/ECAT_SSC/v4_0_6/ECAT_SSC_0.app#//@connections.14"/>
  <hwConnections href="APPS/ECAT_SSC/v4_0_6/ECAT_SSC_0.app#//@connections.15"/>
  <hwConnections href="APPS/ECAT_SSC/v4_0_6/ECAT_SSC_0.app#//@connections.16"/>
  <hwConnections href="APPS/ECAT_SSC/v4_0_6/ECAT_SSC_0.app#//@connections.17"/>
  <hwConnections href="APPS/ECAT_SSC/v4_0_6/ECAT_SSC_0.app#//@connections.18"/>
  <hwConnections href="APPS/ECAT_SSC/v4_0_6/ECAT_SSC_0.app#//@connections.19"/>
  <hwConnections href="APPS/ECAT_SSC/v4_0_6/ECAT_SSC_0.app#//@connections.20"/>
  <hwConnections href="APPS/ECAT_SSC/v4_0_6/ECAT_SSC_0.app#//@connections.21"/>
  <hwConnections href="APPS/ECAT_SSC/v4_0_6/ECAT_SSC_0.app#//@connections.22"/>
  <hwConnections href="APPS/ECAT_SSC/v4_0_6/ECAT_SSC_0.app#//@connections.23"/>
  <hwConnections href="APPS/ECAT_SSC/v4_0_6/ECAT_SSC_0.app#//@connections.24"/>
  <hwConnections href="APPS/ECAT_SSC/v4_0_6/ECAT_SSC_0.app#//@connections.25"/>
  <hwConnections href="APPS/ECAT_SSC/v4_0_6/ECAT_SSC_0.app#//@connections.26"/>
  <hwConnections href="APPS/ECAT_SSC/v4_0_6/ECAT_SSC_0.app#//@connections.27"/>
  <hwConnections href="APPS/ECAT_SSC/v4_0_6/ECAT_SSC_0.app#//@connections.28"/>
  <hwConnections href="APPS/ECAT_SSC/v4_0_6/ECAT_SSC_0.app#//@connections.29"/>
  <hwConnections href="APPS/ECAT_SSC/v4_0_6/ECAT_SSC_0.app#//@connections.30"/>
  <hwConnections href="APPS/ECAT_SSC/v4_0_6/ECAT_SSC_0.app#//@connections.31"/>
  <hwConnections href="APPS/ECAT_SSC/v4_0_6/ECAT_SSC_0.app#//@connections.32"/>
  <hwConnections href="APPS/ECAT_SSC/v4_0_6/ECAT_SSC_0.app#//@connections.33"/>
  <hwConnections href="APPS/ECAT_SSC/v4_0_6/ECAT_SSC_0.app#//@connections.34"/>
  <hwConnections href="APPS/ECAT_SSC/v4_0_6/ECAT_SSC_0.app#//@connections.35"/>
  <hwConnections href="APPS/ECAT_SSC/v4_0_6/ECAT_SSC_0.app#//@connections.38"/>
  <hwConnections href="APPS/ECAT_SSC/v4_0_6/ECAT_SSC_0.app#//@connections.39"/>
  <hwConnections href="APPS/ECAT_SSC/v4_0_6/ECAT_SSC_0.app#//@connections.40"/>
  <hwConnections href="APPS/ECAT_SSC/v4_0_6/ECAT_SSC_0.app#//@connections.41"/>
  <hwConnections href="APPS/ECAT_SSC/v4_0_6/ECAT_SSC_0.app#//@connections.42"/>
  <hwConnections href="APPS/ECAT_SSC/v4_0_6/ECAT_SSC_0.app#//@connections.43"/>
  <hwConnections href="APPS/ECAT_SSC/v4_0_6/ECAT_SSC_0.app#//@connections.44"/>
  <hwConnections href="APPS/ECAT_SSC/v4_0_6/ECAT_SSC_0.app#//@connections.45"/>
  <hwConnections href="APPS/ECAT_SSC/v4_0_6/ECAT_SSC_0.app#//@connections.46"/>
  <hwConnections href="APPS/ECAT_SSC/v4_0_6/ECAT_SSC_0.app#//@connections.47"/>
  <hwConnections href="APPS/ECAT_SSC/v4_0_6/ECAT_SSC_0.app#//@connections.48"/>
  <hwConnections href="APPS/ECAT_SSC/v4_0_6/ECAT_SSC_0.app#//@connections.49"/>
  <hwConnections href="APPS/ECAT_SSC/v4_0_6/ECAT_SSC_0.app#//@connections.50"/>
  <hwConnections href="APPS/ECAT_SSC/v4_0_6/ECAT_SSC_0.app#//@connections.51"/>
  <hwConnections href="APPS/ECAT_SSC/v4_0_6/ECAT_SSC_0.app#//@connections.52"/>
  <hwConnections href="APPS/ECAT_SSC/v4_0_6/ECAT_SSC_0.app#//@connections.53"/>
  <hwConnections href="APPS/ECAT_SSC/v4_0_6/ECAT_SSC_0.app#//@connections.54"/>
  <hwConnections href="APPS/ECAT_SSC/v4_0_6/ECAT_SSC_0.app#//@connections.55"/>
  <hwConnections href="APPS/ECAT_SSC/v4_0_6/ECAT_SSC_0.app#//@connections.56"/>
  <hwConnections href="APPS/ECAT_SSC/v4_0_6/ECAT_SSC_0.app#//@connections.57"/>
  <hwConnections href="APPS/ECAT_SSC/v4_0_6/ECAT_SSC_0.app#//@connections.58"/>
  <hwConnections href="APPS/ECAT_SSC/v4_0_6/ECAT_SSC_0.app#//@connections.59"/>
  <hwConnections href="APPS/ECAT_SSC/v4_0_6/ECAT_SSC_0.app#//@connections.60"/>
  <hwConnections href="APPS/ECAT_SSC/v4_0_6/ECAT_SSC_0.app#//@connections.61"/>
  <hwConnections href="APPS/ECAT_SSC/v4_0_6/ECAT_SSC_0.app#//@connections.62"/>
  <hwConnections href="APPS/ECAT_SSC/v4_0_6/ECAT_SSC_0.app#//@connections.63"/>
  <hwConnections href="APPS/ECAT_SSC/v4_0_6/ECAT_SSC_0.app#//@connections.64"/>
  <hwConnections href="APPS/ECAT_SSC/v4_0_6/ECAT_SSC_0.app#//@connections.65"/>
  <hwConnections href="APPS/ECAT_SSC/v4_0_6/ECAT_SSC_0.app#//@connections.66"/>
  <hwConnections href="APPS/ECAT_SSC/v4_0_6/ECAT_SSC_0.app#//@connections.67"/>
  <hwConnections href="APPS/ECAT_SSC/v4_0_6/ECAT_SSC_0.app#//@connections.68"/>
  <hwConnections href="APPS/ECAT_SSC/v4_0_6/ECAT_SSC_0.app#//@connections.69"/>
  <hwConnections href="APPS/ECAT_SSC/v4_0_6/ECAT_SSC_0.app#//@connections.70"/>
  <hwConnections href="APPS/ECAT_SSC/v4_0_6/ECAT_SSC_0.app#//@connections.71"/>
  <hwConnections href="APPS/ECAT_SSC/v4_0_6/ECAT_SSC_0.app#//@connections.72"/>
  <hwConnections href="APPS/ECAT_SSC/v4_0_6/ECAT_SSC_0.app#//@connections.73"/>
  <hwConnections href="APPS/ECAT_SSC/v4_0_6/ECAT_SSC_0.app#//@connections.74"/>
  <hwConnections href="APPS/ECAT_SSC/v4_0_6/ECAT_SSC_0.app#//@connections.75"/>
  <hwConnections href="APPS/ECAT_SSC/v4_0_6/ECAT_SSC_0.app#//@connections.76"/>
  <hwConnections href="APPS/ECAT_SSC/v4_0_6/ECAT_SSC_0.app#//@connections.77"/>
  <hwConnections href="APPS/ECAT_SSC/v4_0_6/ECAT_SSC_0.app#//@connections.78"/>
  <hwConnections href="APPS/ECAT_SSC/v4_0_6/ECAT_SSC_0.app#//@connections.79"/>
  <hwConnections href="APPS/ECAT_SSC/v4_0_6/ECAT_SSC_0.app#//@connections.80"/>
  <hwConnections href="APPS/ECAT_SSC/v4_0_6/ECAT_SSC_0.app#//@connections.81"/>
  <hwConnections href="APPS/ECAT_SSC/v4_0_6/ECAT_SSC_0.app#//@connections.82"/>
  <hwConnections href="APPS/ECAT_SSC/v4_0_6/ECAT_SSC_0.app#//@connections.83"/>
  <hwConnections href="APPS/ECAT_SSC/v4_0_6/ECAT_SSC_0.app#//@connections.84"/>
  <hwConnections href="APPS/ECAT_SSC/v4_0_6/ECAT_SSC_0.app#//@connections.85"/>
  <hwConnections href="APPS/ECAT_SSC/v4_0_6/ECAT_SSC_0.app#//@connections.86"/>
  <hwConnections href="APPS/ECAT_SSC/v4_0_6/ECAT_SSC_0.app#//@connections.87"/>
  <hwConnections href="APPS/ECAT_SSC/v4_0_6/ECAT_SSC_0.app#//@connections.88"/>
  <hwConnections href="APPS/ECAT_SSC/v4_0_6/ECAT_SSC_0.app#//@connections.89"/>
  <hwConnections href="APPS/ECAT_SSC/v4_0_6/ECAT_SSC_0.app#//@connections.90"/>
  <hwConnections href="APPS/ECAT_SSC/v4_0_6/ECAT_SSC_0.app#//@connections.91"/>
  <hwConnections href="APPS/ECAT_SSC/v4_0_6/ECAT_SSC_0.app#//@connections.92"/>
  <hwConnections href="APPS/ECAT_SSC/v4_0_6/ECAT_SSC_0.app#//@connections.93"/>
  <hwConnections href="APPS/ECAT_SSC/v4_0_6/ECAT_SSC_0.app#//@connections.94"/>
  <hwConnections href="APPS/ECAT_SSC/v4_0_6/ECAT_SSC_0.app#//@connections.95"/>
  <hwConnections href="APPS/ECAT_SSC/v4_0_6/ECAT_SSC_0.app#//@connections.96"/>
  <hwConnections href="APPS/ECAT_SSC/v4_0_6/ECAT_SSC_0.app#//@connections.97"/>
  <hwConnections href="APPS/ECAT_SSC/v4_0_6/ECAT_SSC_0.app#//@connections.98"/>
  <hwConnections href="APPS/ECAT_SSC/v4_0_6/ECAT_SSC_0.app#//@connections.99"/>
  <hwConnections href="APPS/ECAT_SSC/v4_0_6/ECAT_SSC_0.app#//@connections.100"/>
  <hwConnections href="APPS/ECAT_SSC/v4_0_6/ECAT_SSC_0.app#//@connections.101"/>
  <hwConnections href="APPS/ECAT_SSC/v4_0_6/ECAT_SSC_0.app#//@connections.102"/>
  <hwConnections href="APPS/ECAT_SSC/v4_0_6/ECAT_SSC_0.app#//@connections.103"/>
  <hwConnections href="APPS/ECAT_SSC/v4_0_6/ECAT_SSC_0.app#//@connections.104"/>
  <hwConnections href="APPS/ECAT_SSC/v4_0_6/ECAT_SSC_0.app#//@connections.105"/>
  <hwConnections href="APPS/ECAT_SSC/v4_0_6/ECAT_SSC_0.app#//@connections.106"/>
  <hwConnections href="APPS/ECAT_SSC/v4_0_6/ECAT_SSC_0.app#//@connections.107"/>
  <hwConnections href="APPS/ECAT_SSC/v4_0_6/ECAT_SSC_0.app#//@connections.108"/>
  <hwConnections href="APPS/ECAT_SSC/v4_0_6/ECAT_SSC_0.app#//@connections.109"/>
  <hwConnections href="APPS/GLOBAL_CCU8/v4_1_12/GLOBAL_CCU8_0.app#//@connections.0"/>
  <hwConnections href="APPS/PWM_CCU8/v4_1_20/PWM_CCU8_0.app#//@connections.0"/>
  <hwConnections href="APPS/PWM_CCU8/v4_1_20/PWM_CCU8_0.app#//@connections.8"/>
  <hwConnections href="APPS/PWM_CCU8/v4_1_20/PWM_CCU8_0.app#//@connections.9"/>
  <hwConnections href="APPS/PWM_CCU8/v4_1_20/PWM_CCU8_0.app#//@connections.10"/>
  <hwConnections href="APPS/PWM_CCU8/v4_1_20/PWM_CCU8_0.app#//@connections.11"/>
  <hwConnections href="APPS/PWM_CCU8/v4_1_20/PWM_CCU8_0.app#//@connections.12"/>
  <hwConnections href="APPS/PWM_CCU8/v4_1_20/PWM_CCU8_0.app#//@connections.13"/>
  <hwConnections href="APPS/PWM_CCU8/v4_1_20/PWM_CCU8_0.app#//@connections.14"/>
  <hwConnections href="APPS/PWM_CCU8/v4_1_20/PWM_CCU8_0.app#//@connections.15"/>
  <hwConnections href="APPS/PWM_CCU8/v4_1_20/PWM_CCU8_0.app#//@connections.5"/>
  <hwConnections href="APPS/DIGITAL_IO/v4_0_14/DIGITAL_IO_0.app#//@connections.0"/>
  <hwConnections href="APPS/DIGITAL_IO/v4_0_14/DIGITAL_IO_0.app#//@connections.1"/>
  <hwConnections href="APPS/DIGITAL_IO/v4_0_14/DIGITAL_IO_1.app#//@connections.0"/>
  <hwConnections href="APPS/DIGITAL_IO/v4_0_14/DIGITAL_IO_1.app#//@connections.1"/>
  <hwConnections href="APPS/DIGITAL_IO/v4_0_14/DIGITAL_IO_2.app#//@connections.0"/>
  <hwConnections href="APPS/DIGITAL_IO/v4_0_14/DIGITAL_IO_2.app#//@connections.1"/>
  <hwConnections href="APPS/UART/v4_1_6/UART_0.app#//@connections.0"/>
  <hwConnections href="APPS/UART/v4_1_6/UART_0.app#//@connections.1"/>
  <hwConnections href="APPS/UART/v4_1_6/UART_0.app#//@connections.7"/>
  <hwConnections href="APPS/UART/v4_1_6/UART_0.app#//@connections.8"/>
  <hwConnections href="APPS/UART/v4_1_6/UART_0.app#//@connections.9"/>
  <hwConnections href="APPS/UART/v4_1_6/UART_0.app#//@connections.18"/>
  <hwConnections href="APPS/UART/v4_1_6/UART_0.app#//@connections.19"/>
  <hwConnections href="APPS/UART/v4_1_6/UART_0.app#//@connections.20"/>
  <hwConnections href="APPS/UART/v4_1_6/UART_0.app#//@connections.21"/>
  <hwConnections href="APPS/TIMER/v4_1_8/TIMER_0.app#//@connections.1"/>
  <hwConnections href="APPS/ECAT_SSC/v4_0_6/ECAT_SSC_0.app#//@connections.37"/>
</ApplicationModel:ApplicationData>
